^C:\USERS\MIRO\DESKTOP\VJEZBA 11\EXCEPTIONS.CPP
/c /ZI /JMC /nologo /W3 /WX- /diagnostics:classic /sdl /Od /Oy- /D _MBCS /Gm- /EHsc /RTC1 /MDd /GS /fp:precise /permissive- /Zc:wchar_t /Zc:forScope /Zc:inline /Fo"DEBUG\\" /Fd"DEBUG\VC141.PDB" /Gd /TP /wd4996 /analyze- /FC C:\USERS\MIRO\DESKTOP\VJEZBA 11\EXCEPTIONS.CPP
^C:\USERS\MIRO\DESKTOP\VJEZBA 11\MAIN.CPP
/c /ZI /JMC /nologo /W3 /WX- /diagnostics:classic /sdl /Od /Oy- /D _MBCS /Gm- /EHsc /RTC1 /MDd /GS /fp:precise /permissive- /Zc:wchar_t /Zc:forScope /Zc:inline /Fo"DEBUG\\" /Fd"DEBUG\VC141.PDB" /Gd /TP /wd4996 /analyze- /FC C:\USERS\MIRO\DESKTOP\VJEZBA 11\MAIN.CPP
