^C:\USERS\MIRO\DESKTOP\VJEZBA 11\EXCEPTIONS.CPP|C:\USERS\MIRO\DESKTOP\VJEZBA 11\MAIN.CPP
C:\USERS\MIRO\DESKTOP\VJEZBA 11\DEBUG\VC141.PDB
C:\USERS\MIRO\DESKTOP\VJEZBA 11\DEBUG\VC141.IDB
C:\USERS\MIRO\DESKTOP\VJEZBA 11\DEBUG\MAIN.OBJ
C:\USERS\MIRO\DESKTOP\VJEZBA 11\DEBUG\EXCEPTIONS.OBJ
^C:\USERS\MIRO\DESKTOP\VJEZBA 11\EXCEPTIONS.CPP
C:\USERS\MIRO\DESKTOP\VJEZBA 11\DEBUG\VC141.PDB
^C:\USERS\MIRO\DESKTOP\VJEZBA 11\MAIN.CPP
C:\USERS\MIRO\DESKTOP\VJEZBA 11\DEBUG\VC141.PDB
C:\USERS\MIRO\DESKTOP\VJEZBA 11\DEBUG\VC141.IDB
C:\USERS\MIRO\DESKTOP\VJEZBA 11\DEBUG\MAIN.OBJ
