^C:\USERS\MIRO\DESKTOP\IZRADA ZADATAKA\VJEZBA 6\ARRAY.CPP
/c /ZI /JMC /nologo /W3 /WX- /diagnostics:classic /sdl /Od /Oy- /D _MBCS /Gm- /EHsc /RTC1 /MDd /GS /fp:precise /permissive- /Zc:wchar_t /Zc:forScope /Zc:inline /Fo"DEBUG\\" /Fd"DEBUG\VC141.PDB" /Gd /TP /analyze- /FC C:\USERS\MIRO\DESKTOP\IZRADA ZADATAKA\VJEZBA 6\ARRAY.CPP
^C:\USERS\MIRO\DESKTOP\IZRADA ZADATAKA\VJEZBA 6\MAIN.CPP
/c /ZI /JMC /nologo /W3 /WX- /diagnostics:classic /sdl /Od /Oy- /D _MBCS /Gm- /EHsc /RTC1 /MDd /GS /fp:precise /permissive- /Zc:wchar_t /Zc:forScope /Zc:inline /Fo"DEBUG\\" /Fd"DEBUG\VC141.PDB" /Gd /TP /analyze- /FC C:\USERS\MIRO\DESKTOP\IZRADA ZADATAKA\VJEZBA 6\MAIN.CPP
^C:\USERS\MIRO\DESKTOP\IZRADA ZADATAKA\VJEZBA 6 ARRAY\ARRAY.CPP
/c /ZI /JMC /nologo /W3 /WX- /diagnostics:classic /sdl /Od /Oy- /D _MBCS /Gm- /EHsc /RTC1 /MDd /GS /fp:precise /permissive- /Zc:wchar_t /Zc:forScope /Zc:inline /Fo"DEBUG\\" /Fd"DEBUG\VC141.PDB" /Gd /TP /analyze- /FC C:\USERS\MIRO\DESKTOP\IZRADA ZADATAKA\VJEZBA 6 ARRAY\ARRAY.CPP
^C:\USERS\MIRO\DESKTOP\IZRADA ZADATAKA\VJEZBA 6 ARRAY\MAIN.CPP
/c /ZI /JMC /nologo /W3 /WX- /diagnostics:classic /sdl /Od /Oy- /D _MBCS /Gm- /EHsc /RTC1 /MDd /GS /fp:precise /permissive- /Zc:wchar_t /Zc:forScope /Zc:inline /Fo"DEBUG\\" /Fd"DEBUG\VC141.PDB" /Gd /TP /analyze- /FC C:\USERS\MIRO\DESKTOP\IZRADA ZADATAKA\VJEZBA 6 ARRAY\MAIN.CPP
^C:\USERS\MIRO\DESKTOP\OOP\IZRADA ZADATAKA\VJEZBA 6 ARRAY\ARRAY.CPP
/c /ZI /JMC /nologo /W3 /WX- /diagnostics:classic /sdl /Od /Oy- /D _MBCS /Gm- /EHsc /RTC1 /MDd /GS /fp:precise /permissive- /Zc:wchar_t /Zc:forScope /Zc:inline /Fo"DEBUG\\" /Fd"DEBUG\VC141.PDB" /Gd /TP /analyze- /FC C:\USERS\MIRO\DESKTOP\OOP\IZRADA ZADATAKA\VJEZBA 6 ARRAY\ARRAY.CPP
^C:\USERS\MIRO\DESKTOP\OOP\IZRADA ZADATAKA\VJEZBA 6 ARRAY\MAIN.CPP
/c /ZI /JMC /nologo /W3 /WX- /diagnostics:classic /sdl /Od /Oy- /D _MBCS /Gm- /EHsc /RTC1 /MDd /GS /fp:precise /permissive- /Zc:wchar_t /Zc:forScope /Zc:inline /Fo"DEBUG\\" /Fd"DEBUG\VC141.PDB" /Gd /TP /analyze- /FC C:\USERS\MIRO\DESKTOP\OOP\IZRADA ZADATAKA\VJEZBA 6 ARRAY\MAIN.CPP
