^C:\USERS\MIRO\DESKTOP\NEW FOLDER\IZRADA ZADATAKA\VJEZBA 8\BIRD.CPP
/c /ZI /JMC /nologo /W3 /WX- /diagnostics:classic /sdl /Od /Oy- /D _MBCS /Gm- /EHsc /RTC1 /MDd /GS /fp:precise /permissive- /Zc:wchar_t /Zc:forScope /Zc:inline /Fo"DEBUG\\" /Fd"DEBUG\VC141.PDB" /Gd /TP /wd4996 /analyze- /FC C:\USERS\MIRO\DESKTOP\NEW FOLDER\IZRADA ZADATAKA\VJEZBA 8\BIRD.CPP
^C:\USERS\MIRO\DESKTOP\NEW FOLDER\IZRADA ZADATAKA\VJEZBA 8\CROCODILE.CPP
/c /ZI /JMC /nologo /W3 /WX- /diagnostics:classic /sdl /Od /Oy- /D _MBCS /Gm- /EHsc /RTC1 /MDd /GS /fp:precise /permissive- /Zc:wchar_t /Zc:forScope /Zc:inline /Fo"DEBUG\\" /Fd"DEBUG\VC141.PDB" /Gd /TP /wd4996 /analyze- /FC C:\USERS\MIRO\DESKTOP\NEW FOLDER\IZRADA ZADATAKA\VJEZBA 8\CROCODILE.CPP
^C:\USERS\MIRO\DESKTOP\NEW FOLDER\IZRADA ZADATAKA\VJEZBA 8\ELEPHANT.CPP
/c /ZI /JMC /nologo /W3 /WX- /diagnostics:classic /sdl /Od /Oy- /D _MBCS /Gm- /EHsc /RTC1 /MDd /GS /fp:precise /permissive- /Zc:wchar_t /Zc:forScope /Zc:inline /Fo"DEBUG\\" /Fd"DEBUG\VC141.PDB" /Gd /TP /wd4996 /analyze- /FC C:\USERS\MIRO\DESKTOP\NEW FOLDER\IZRADA ZADATAKA\VJEZBA 8\ELEPHANT.CPP
^C:\USERS\MIRO\DESKTOP\NEW FOLDER\IZRADA ZADATAKA\VJEZBA 8\GRIFFONVULTURE.CPP
/c /ZI /JMC /nologo /W3 /WX- /diagnostics:classic /sdl /Od /Oy- /D _MBCS /Gm- /EHsc /RTC1 /MDd /GS /fp:precise /permissive- /Zc:wchar_t /Zc:forScope /Zc:inline /Fo"DEBUG\\" /Fd"DEBUG\VC141.PDB" /Gd /TP /wd4996 /analyze- /FC C:\USERS\MIRO\DESKTOP\NEW FOLDER\IZRADA ZADATAKA\VJEZBA 8\GRIFFONVULTURE.CPP
^C:\USERS\MIRO\DESKTOP\NEW FOLDER\IZRADA ZADATAKA\VJEZBA 8\MAMMAL.CPP
/c /ZI /JMC /nologo /W3 /WX- /diagnostics:classic /sdl /Od /Oy- /D _MBCS /Gm- /EHsc /RTC1 /MDd /GS /fp:precise /permissive- /Zc:wchar_t /Zc:forScope /Zc:inline /Fo"DEBUG\\" /Fd"DEBUG\VC141.PDB" /Gd /TP /wd4996 /analyze- /FC C:\USERS\MIRO\DESKTOP\NEW FOLDER\IZRADA ZADATAKA\VJEZBA 8\MAMMAL.CPP
^C:\USERS\MIRO\DESKTOP\NEW FOLDER\IZRADA ZADATAKA\VJEZBA 8\MONKEY.CPP
/c /ZI /JMC /nologo /W3 /WX- /diagnostics:classic /sdl /Od /Oy- /D _MBCS /Gm- /EHsc /RTC1 /MDd /GS /fp:precise /permissive- /Zc:wchar_t /Zc:forScope /Zc:inline /Fo"DEBUG\\" /Fd"DEBUG\VC141.PDB" /Gd /TP /wd4996 /analyze- /FC C:\USERS\MIRO\DESKTOP\NEW FOLDER\IZRADA ZADATAKA\VJEZBA 8\MONKEY.CPP
^C:\USERS\MIRO\DESKTOP\NEW FOLDER\IZRADA ZADATAKA\VJEZBA 8\OWL.CPP
/c /ZI /JMC /nologo /W3 /WX- /diagnostics:classic /sdl /Od /Oy- /D _MBCS /Gm- /EHsc /RTC1 /MDd /GS /fp:precise /permissive- /Zc:wchar_t /Zc:forScope /Zc:inline /Fo"DEBUG\\" /Fd"DEBUG\VC141.PDB" /Gd /TP /wd4996 /analyze- /FC C:\USERS\MIRO\DESKTOP\NEW FOLDER\IZRADA ZADATAKA\VJEZBA 8\OWL.CPP
^C:\USERS\MIRO\DESKTOP\NEW FOLDER\IZRADA ZADATAKA\VJEZBA 8\REPTILE.CPP
/c /ZI /JMC /nologo /W3 /WX- /diagnostics:classic /sdl /Od /Oy- /D _MBCS /Gm- /EHsc /RTC1 /MDd /GS /fp:precise /permissive- /Zc:wchar_t /Zc:forScope /Zc:inline /Fo"DEBUG\\" /Fd"DEBUG\VC141.PDB" /Gd /TP /wd4996 /analyze- /FC C:\USERS\MIRO\DESKTOP\NEW FOLDER\IZRADA ZADATAKA\VJEZBA 8\REPTILE.CPP
^C:\USERS\MIRO\DESKTOP\NEW FOLDER\IZRADA ZADATAKA\VJEZBA 8\TIGER.CPP
/c /ZI /JMC /nologo /W3 /WX- /diagnostics:classic /sdl /Od /Oy- /D _MBCS /Gm- /EHsc /RTC1 /MDd /GS /fp:precise /permissive- /Zc:wchar_t /Zc:forScope /Zc:inline /Fo"DEBUG\\" /Fd"DEBUG\VC141.PDB" /Gd /TP /wd4996 /analyze- /FC C:\USERS\MIRO\DESKTOP\NEW FOLDER\IZRADA ZADATAKA\VJEZBA 8\TIGER.CPP
^C:\USERS\MIRO\DESKTOP\NEW FOLDER\IZRADA ZADATAKA\VJEZBA 8\TURTLE.CPP
/c /ZI /JMC /nologo /W3 /WX- /diagnostics:classic /sdl /Od /Oy- /D _MBCS /Gm- /EHsc /RTC1 /MDd /GS /fp:precise /permissive- /Zc:wchar_t /Zc:forScope /Zc:inline /Fo"DEBUG\\" /Fd"DEBUG\VC141.PDB" /Gd /TP /wd4996 /analyze- /FC C:\USERS\MIRO\DESKTOP\NEW FOLDER\IZRADA ZADATAKA\VJEZBA 8\TURTLE.CPP
^C:\USERS\MIRO\DESKTOP\NEW FOLDER\IZRADA ZADATAKA\VJEZBA 8\ZOOANIMAL.CPP
/c /ZI /JMC /nologo /W3 /WX- /diagnostics:classic /sdl /Od /Oy- /D _MBCS /Gm- /EHsc /RTC1 /MDd /GS /fp:precise /permissive- /Zc:wchar_t /Zc:forScope /Zc:inline /Fo"DEBUG\\" /Fd"DEBUG\VC141.PDB" /Gd /TP /wd4996 /analyze- /FC C:\USERS\MIRO\DESKTOP\NEW FOLDER\IZRADA ZADATAKA\VJEZBA 8\ZOOANIMAL.CPP
^C:\USERS\MIRO\DESKTOP\NEW FOLDER\IZRADA ZADATAKA\VJEZBA 8\MAIN.CPP
/c /ZI /JMC /nologo /W3 /WX- /diagnostics:classic /sdl /Od /Oy- /D _MBCS /Gm- /EHsc /RTC1 /MDd /GS /fp:precise /permissive- /Zc:wchar_t /Zc:forScope /Zc:inline /Fo"DEBUG\\" /Fd"DEBUG\VC141.PDB" /Gd /TP /wd4996 /analyze- /FC C:\USERS\MIRO\DESKTOP\NEW FOLDER\IZRADA ZADATAKA\VJEZBA 8\MAIN.CPP
^C:\USERS\MIRO\DESKTOP\VJEZBA 8 ODVOJENE KLASE (POPRAVI)\CROCODILE.CPP
/c /ZI /JMC /nologo /W3 /WX- /diagnostics:classic /sdl /Od /Oy- /D _MBCS /Gm- /EHsc /RTC1 /MDd /GS /fp:precise /permissive- /Zc:wchar_t /Zc:forScope /Zc:inline /Fo"DEBUG\\" /Fd"DEBUG\VC141.PDB" /Gd /TP /wd4996 /analyze- /FC C:\USERS\MIRO\DESKTOP\VJEZBA 8 ODVOJENE KLASE (POPRAVI)\CROCODILE.CPP
^C:\USERS\MIRO\DESKTOP\VJEZBA 8 ODVOJENE KLASE (POPRAVI)\ELEPHANT.CPP
/c /ZI /JMC /nologo /W3 /WX- /diagnostics:classic /sdl /Od /Oy- /D _MBCS /Gm- /EHsc /RTC1 /MDd /GS /fp:precise /permissive- /Zc:wchar_t /Zc:forScope /Zc:inline /Fo"DEBUG\\" /Fd"DEBUG\VC141.PDB" /Gd /TP /wd4996 /analyze- /FC C:\USERS\MIRO\DESKTOP\VJEZBA 8 ODVOJENE KLASE (POPRAVI)\ELEPHANT.CPP
^C:\USERS\MIRO\DESKTOP\VJEZBA 8 ODVOJENE KLASE (POPRAVI)\GRIFFONVULTURE.CPP
/c /ZI /JMC /nologo /W3 /WX- /diagnostics:classic /sdl /Od /Oy- /D _MBCS /Gm- /EHsc /RTC1 /MDd /GS /fp:precise /permissive- /Zc:wchar_t /Zc:forScope /Zc:inline /Fo"DEBUG\\" /Fd"DEBUG\VC141.PDB" /Gd /TP /wd4996 /analyze- /FC C:\USERS\MIRO\DESKTOP\VJEZBA 8 ODVOJENE KLASE (POPRAVI)\GRIFFONVULTURE.CPP
^C:\USERS\MIRO\DESKTOP\VJEZBA 8 ODVOJENE KLASE (POPRAVI)\MONKEY.CPP
/c /ZI /JMC /nologo /W3 /WX- /diagnostics:classic /sdl /Od /Oy- /D _MBCS /Gm- /EHsc /RTC1 /MDd /GS /fp:precise /permissive- /Zc:wchar_t /Zc:forScope /Zc:inline /Fo"DEBUG\\" /Fd"DEBUG\VC141.PDB" /Gd /TP /wd4996 /analyze- /FC C:\USERS\MIRO\DESKTOP\VJEZBA 8 ODVOJENE KLASE (POPRAVI)\MONKEY.CPP
^C:\USERS\MIRO\DESKTOP\VJEZBA 8 ODVOJENE KLASE (POPRAVI)\OWL.CPP
/c /ZI /JMC /nologo /W3 /WX- /diagnostics:classic /sdl /Od /Oy- /D _MBCS /Gm- /EHsc /RTC1 /MDd /GS /fp:precise /permissive- /Zc:wchar_t /Zc:forScope /Zc:inline /Fo"DEBUG\\" /Fd"DEBUG\VC141.PDB" /Gd /TP /wd4996 /analyze- /FC C:\USERS\MIRO\DESKTOP\VJEZBA 8 ODVOJENE KLASE (POPRAVI)\OWL.CPP
^C:\USERS\MIRO\DESKTOP\VJEZBA 8 ODVOJENE KLASE (POPRAVI)\TIGER.CPP
/c /ZI /JMC /nologo /W3 /WX- /diagnostics:classic /sdl /Od /Oy- /D _MBCS /Gm- /EHsc /RTC1 /MDd /GS /fp:precise /permissive- /Zc:wchar_t /Zc:forScope /Zc:inline /Fo"DEBUG\\" /Fd"DEBUG\VC141.PDB" /Gd /TP /wd4996 /analyze- /FC C:\USERS\MIRO\DESKTOP\VJEZBA 8 ODVOJENE KLASE (POPRAVI)\TIGER.CPP
^C:\USERS\MIRO\DESKTOP\VJEZBA 8 ODVOJENE KLASE (POPRAVI)\TURTLE.CPP
/c /ZI /JMC /nologo /W3 /WX- /diagnostics:classic /sdl /Od /Oy- /D _MBCS /Gm- /EHsc /RTC1 /MDd /GS /fp:precise /permissive- /Zc:wchar_t /Zc:forScope /Zc:inline /Fo"DEBUG\\" /Fd"DEBUG\VC141.PDB" /Gd /TP /wd4996 /analyze- /FC C:\USERS\MIRO\DESKTOP\VJEZBA 8 ODVOJENE KLASE (POPRAVI)\TURTLE.CPP
^C:\USERS\MIRO\DESKTOP\VJEZBA 8 ODVOJENE KLASE (POPRAVI)\MAIN.CPP
/c /ZI /JMC /nologo /W3 /WX- /diagnostics:classic /sdl /Od /Oy- /D _MBCS /Gm- /EHsc /RTC1 /MDd /GS /fp:precise /permissive- /Zc:wchar_t /Zc:forScope /Zc:inline /Fo"DEBUG\\" /Fd"DEBUG\VC141.PDB" /Gd /TP /wd4996 /analyze- /FC C:\USERS\MIRO\DESKTOP\VJEZBA 8 ODVOJENE KLASE (POPRAVI)\MAIN.CPP
^C:\USERS\MIRO\DESKTOP\VJEZBA 8 ODVOJENE KLASE (POPRAVI)\BIRD.CPP
/c /ZI /JMC /nologo /W3 /WX- /diagnostics:classic /sdl /Od /Oy- /D _MBCS /Gm- /EHsc /RTC1 /MDd /GS /fp:precise /permissive- /Zc:wchar_t /Zc:forScope /Zc:inline /Fo"DEBUG\\" /Fd"DEBUG\VC141.PDB" /Gd /TP /wd4996 /analyze- /FC C:\USERS\MIRO\DESKTOP\VJEZBA 8 ODVOJENE KLASE (POPRAVI)\BIRD.CPP
^C:\USERS\MIRO\DESKTOP\VJEZBA 8 ODVOJENE KLASE (POPRAVI)\MAMMAL.CPP
/c /ZI /JMC /nologo /W3 /WX- /diagnostics:classic /sdl /Od /Oy- /D _MBCS /Gm- /EHsc /RTC1 /MDd /GS /fp:precise /permissive- /Zc:wchar_t /Zc:forScope /Zc:inline /Fo"DEBUG\\" /Fd"DEBUG\VC141.PDB" /Gd /TP /wd4996 /analyze- /FC C:\USERS\MIRO\DESKTOP\VJEZBA 8 ODVOJENE KLASE (POPRAVI)\MAMMAL.CPP
^C:\USERS\MIRO\DESKTOP\VJEZBA 8 ODVOJENE KLASE (POPRAVI)\REPTILE.CPP
/c /ZI /JMC /nologo /W3 /WX- /diagnostics:classic /sdl /Od /Oy- /D _MBCS /Gm- /EHsc /RTC1 /MDd /GS /fp:precise /permissive- /Zc:wchar_t /Zc:forScope /Zc:inline /Fo"DEBUG\\" /Fd"DEBUG\VC141.PDB" /Gd /TP /wd4996 /analyze- /FC C:\USERS\MIRO\DESKTOP\VJEZBA 8 ODVOJENE KLASE (POPRAVI)\REPTILE.CPP
^C:\USERS\MIRO\DESKTOP\VJEZBA 8 ODVOJENE KLASE (POPRAVI)\ZOOANIMAL.CPP
/c /ZI /JMC /nologo /W3 /WX- /diagnostics:classic /sdl /Od /Oy- /D _MBCS /Gm- /EHsc /RTC1 /MDd /GS /fp:precise /permissive- /Zc:wchar_t /Zc:forScope /Zc:inline /Fo"DEBUG\\" /Fd"DEBUG\VC141.PDB" /Gd /TP /wd4996 /analyze- /FC C:\USERS\MIRO\DESKTOP\VJEZBA 8 ODVOJENE KLASE (POPRAVI)\ZOOANIMAL.CPP
^C:\USERS\MIRO\DESKTOP\VJEZBA 8\BIRD.CPP
/c /ZI /JMC /nologo /W3 /WX- /diagnostics:classic /sdl /Od /Oy- /D _MBCS /Gm- /EHsc /RTC1 /MDd /GS /fp:precise /permissive- /Zc:wchar_t /Zc:forScope /Zc:inline /Fo"DEBUG\\" /Fd"DEBUG\VC141.PDB" /Gd /TP /wd4996 /analyze- /FC C:\USERS\MIRO\DESKTOP\VJEZBA 8\BIRD.CPP
^C:\USERS\MIRO\DESKTOP\VJEZBA 8\CROCODILE.CPP
/c /ZI /JMC /nologo /W3 /WX- /diagnostics:classic /sdl /Od /Oy- /D _MBCS /Gm- /EHsc /RTC1 /MDd /GS /fp:precise /permissive- /Zc:wchar_t /Zc:forScope /Zc:inline /Fo"DEBUG\\" /Fd"DEBUG\VC141.PDB" /Gd /TP /wd4996 /analyze- /FC C:\USERS\MIRO\DESKTOP\VJEZBA 8\CROCODILE.CPP
^C:\USERS\MIRO\DESKTOP\VJEZBA 8\ELEPHANT.CPP
/c /ZI /JMC /nologo /W3 /WX- /diagnostics:classic /sdl /Od /Oy- /D _MBCS /Gm- /EHsc /RTC1 /MDd /GS /fp:precise /permissive- /Zc:wchar_t /Zc:forScope /Zc:inline /Fo"DEBUG\\" /Fd"DEBUG\VC141.PDB" /Gd /TP /wd4996 /analyze- /FC C:\USERS\MIRO\DESKTOP\VJEZBA 8\ELEPHANT.CPP
^C:\USERS\MIRO\DESKTOP\VJEZBA 8\GRIFFONVULTURE.CPP
/c /ZI /JMC /nologo /W3 /WX- /diagnostics:classic /sdl /Od /Oy- /D _MBCS /Gm- /EHsc /RTC1 /MDd /GS /fp:precise /permissive- /Zc:wchar_t /Zc:forScope /Zc:inline /Fo"DEBUG\\" /Fd"DEBUG\VC141.PDB" /Gd /TP /wd4996 /analyze- /FC C:\USERS\MIRO\DESKTOP\VJEZBA 8\GRIFFONVULTURE.CPP
^C:\USERS\MIRO\DESKTOP\VJEZBA 8\MAMMAL.CPP
/c /ZI /JMC /nologo /W3 /WX- /diagnostics:classic /sdl /Od /Oy- /D _MBCS /Gm- /EHsc /RTC1 /MDd /GS /fp:precise /permissive- /Zc:wchar_t /Zc:forScope /Zc:inline /Fo"DEBUG\\" /Fd"DEBUG\VC141.PDB" /Gd /TP /wd4996 /analyze- /FC C:\USERS\MIRO\DESKTOP\VJEZBA 8\MAMMAL.CPP
^C:\USERS\MIRO\DESKTOP\VJEZBA 8\MONKEY.CPP
/c /ZI /JMC /nologo /W3 /WX- /diagnostics:classic /sdl /Od /Oy- /D _MBCS /Gm- /EHsc /RTC1 /MDd /GS /fp:precise /permissive- /Zc:wchar_t /Zc:forScope /Zc:inline /Fo"DEBUG\\" /Fd"DEBUG\VC141.PDB" /Gd /TP /wd4996 /analyze- /FC C:\USERS\MIRO\DESKTOP\VJEZBA 8\MONKEY.CPP
^C:\USERS\MIRO\DESKTOP\VJEZBA 8\OWL.CPP
/c /ZI /JMC /nologo /W3 /WX- /diagnostics:classic /sdl /Od /Oy- /D _MBCS /Gm- /EHsc /RTC1 /MDd /GS /fp:precise /permissive- /Zc:wchar_t /Zc:forScope /Zc:inline /Fo"DEBUG\\" /Fd"DEBUG\VC141.PDB" /Gd /TP /wd4996 /analyze- /FC C:\USERS\MIRO\DESKTOP\VJEZBA 8\OWL.CPP
^C:\USERS\MIRO\DESKTOP\VJEZBA 8\REPTILE.CPP
/c /ZI /JMC /nologo /W3 /WX- /diagnostics:classic /sdl /Od /Oy- /D _MBCS /Gm- /EHsc /RTC1 /MDd /GS /fp:precise /permissive- /Zc:wchar_t /Zc:forScope /Zc:inline /Fo"DEBUG\\" /Fd"DEBUG\VC141.PDB" /Gd /TP /wd4996 /analyze- /FC C:\USERS\MIRO\DESKTOP\VJEZBA 8\REPTILE.CPP
^C:\USERS\MIRO\DESKTOP\VJEZBA 8\TIGER.CPP
/c /ZI /JMC /nologo /W3 /WX- /diagnostics:classic /sdl /Od /Oy- /D _MBCS /Gm- /EHsc /RTC1 /MDd /GS /fp:precise /permissive- /Zc:wchar_t /Zc:forScope /Zc:inline /Fo"DEBUG\\" /Fd"DEBUG\VC141.PDB" /Gd /TP /wd4996 /analyze- /FC C:\USERS\MIRO\DESKTOP\VJEZBA 8\TIGER.CPP
^C:\USERS\MIRO\DESKTOP\VJEZBA 8\TURTLE.CPP
/c /ZI /JMC /nologo /W3 /WX- /diagnostics:classic /sdl /Od /Oy- /D _MBCS /Gm- /EHsc /RTC1 /MDd /GS /fp:precise /permissive- /Zc:wchar_t /Zc:forScope /Zc:inline /Fo"DEBUG\\" /Fd"DEBUG\VC141.PDB" /Gd /TP /wd4996 /analyze- /FC C:\USERS\MIRO\DESKTOP\VJEZBA 8\TURTLE.CPP
^C:\USERS\MIRO\DESKTOP\VJEZBA 8\ZOOANIMAL.CPP
/c /ZI /JMC /nologo /W3 /WX- /diagnostics:classic /sdl /Od /Oy- /D _MBCS /Gm- /EHsc /RTC1 /MDd /GS /fp:precise /permissive- /Zc:wchar_t /Zc:forScope /Zc:inline /Fo"DEBUG\\" /Fd"DEBUG\VC141.PDB" /Gd /TP /wd4996 /analyze- /FC C:\USERS\MIRO\DESKTOP\VJEZBA 8\ZOOANIMAL.CPP
^C:\USERS\MIRO\DESKTOP\VJEZBA 8\MAIN.CPP
/c /ZI /JMC /nologo /W3 /WX- /diagnostics:classic /sdl /Od /Oy- /D _MBCS /Gm- /EHsc /RTC1 /MDd /GS /fp:precise /permissive- /Zc:wchar_t /Zc:forScope /Zc:inline /Fo"DEBUG\\" /Fd"DEBUG\VC141.PDB" /Gd /TP /wd4996 /analyze- /FC C:\USERS\MIRO\DESKTOP\VJEZBA 8\MAIN.CPP
