^C:\USERS\MIRO\DESKTOP\IZRADA ZADATAKA\VJ4\GUN.CPP
/c /ZI /JMC /nologo /W3 /WX- /diagnostics:classic /sdl /Od /Oy- /D _MBCS /Gm- /EHsc /RTC1 /MDd /GS /fp:precise /permissive- /Zc:wchar_t /Zc:forScope /Zc:inline /Fo"DEBUG\\" /Fd"DEBUG\VC141.PDB" /Gd /TP /analyze- /FC C:\USERS\MIRO\DESKTOP\IZRADA ZADATAKA\VJ4\GUN.CPP
^C:\USERS\MIRO\DESKTOP\IZRADA ZADATAKA\VJ4\TOCKA.CPP
/c /ZI /JMC /nologo /W3 /WX- /diagnostics:classic /sdl /Od /Oy- /D _MBCS /Gm- /EHsc /RTC1 /MDd /GS /fp:precise /permissive- /Zc:wchar_t /Zc:forScope /Zc:inline /Fo"DEBUG\\" /Fd"DEBUG\VC141.PDB" /Gd /TP /analyze- /FC C:\USERS\MIRO\DESKTOP\IZRADA ZADATAKA\VJ4\TOCKA.CPP
^C:\USERS\MIRO\DESKTOP\IZRADA ZADATAKA\VJ4\META.CPP
/c /ZI /JMC /nologo /W3 /WX- /diagnostics:classic /sdl /Od /Oy- /D _MBCS /Gm- /EHsc /RTC1 /MDd /GS /fp:precise /permissive- /Zc:wchar_t /Zc:forScope /Zc:inline /Fo"DEBUG\\" /Fd"DEBUG\VC141.PDB" /Gd /TP /analyze- /FC C:\USERS\MIRO\DESKTOP\IZRADA ZADATAKA\VJ4\META.CPP
^C:\USERS\MIRO\DESKTOP\IZRADA ZADATAKA\VJ4\ORUZJE.CPP
/c /ZI /JMC /nologo /W3 /WX- /diagnostics:classic /sdl /Od /Oy- /D _MBCS /Gm- /EHsc /RTC1 /MDd /GS /fp:precise /permissive- /Zc:wchar_t /Zc:forScope /Zc:inline /Fo"DEBUG\\" /Fd"DEBUG\VC141.PDB" /Gd /TP /analyze- /FC C:\USERS\MIRO\DESKTOP\IZRADA ZADATAKA\VJ4\ORUZJE.CPP
^C:\USERS\MIRO\DESKTOP\IZRADA ZADATAKA\VJ4\MAIN.CPP
/c /ZI /JMC /nologo /W3 /WX- /diagnostics:classic /sdl /Od /Oy- /D _MBCS /Gm- /EHsc /RTC1 /MDd /GS /fp:precise /permissive- /Zc:wchar_t /Zc:forScope /Zc:inline /Fo"DEBUG\\" /Fd"DEBUG\VC141.PDB" /Gd /TP /analyze- /FC C:\USERS\MIRO\DESKTOP\IZRADA ZADATAKA\VJ4\MAIN.CPP
