^C:\USERS\MIRO\DESKTOP\IZRADA ZADATAKA\VJ4\DEBUG\MAIN.OBJ|C:\USERS\MIRO\DESKTOP\IZRADA ZADATAKA\VJ4\DEBUG\META.OBJ|C:\USERS\MIRO\DESKTOP\IZRADA ZADATAKA\VJ4\DEBUG\ORUZJE.OBJ|C:\USERS\MIRO\DESKTOP\IZRADA ZADATAKA\VJ4\DEBUG\TOCKA.OBJ
C:\USERS\MIRO\DESKTOP\IZRADA ZADATAKA\VJ4\DEBUG\VJ4.EXE
C:\USERS\MIRO\DESKTOP\IZRADA ZADATAKA\VJ4\DEBUG\VJ4.ILK
C:\USERS\MIRO\DESKTOP\IZRADA ZADATAKA\VJ4\DEBUG\VJ4.PDB
